{
    "extends": "../../tslint.json",
    "rulesDirectory": [
        "../node_modules/codelyzer"
    ],
    "rules": {
        "directive-selector": [
            false,
            "attribute",
            "app",
            "camelCase"
        ],
        "component-selector": [
            false,
            "element",
            "app",
            "kebab-case"
        ]
    }
}
